digraph containers {

    {rank=same distro machinectl};
    {rank=same docker_start docker_stop docker_rm docker_search docker_ps docker_pull};
    distro [label="distro\ndebootstrap"];

    subgraph {
        jaula -> ejecutables [label="chroot"];
        ejecutables -> dependencias [label="ldd"];
        ejecutables -> maquina  [label="cp"];
        dependencias -> maquina [label="cp"];
    }

    subgraph {
         contenedor -> distro [label="systemd-nspawn -b"];
         jaula -> distro [label="chroot\nsystemd-spawn"];
         distro -> repositorio [label="http"];
    }
    machinectl -> distro;

   subgraph {
        docker_run -> docker_pull;
   }
   
   docker_ps -> docker_pull;
   docker_search -> docker_pull;
   docker_start -> docker_pull;
   docker_stop -> docker_pull;
   docker_rm -> docker_pull;
}
